…
# <table> タグがあるノッドを取得
nodes <- html %>%
  html_nodes("table")
nodes

## {xml_nodeset (1)}
## [1] <table border="1" cellpadding="1" cellspacing="1" style="width: 100%;"><t ...

# テーブルの中身を取得
table <- nodes %>%
  html_table(fill = TRUE)
table

## [[1]]
## # A tibble: 32 x 5
##    X1         X2       X3       X4       X5       
##    <chr>      <chr>    <chr>    <chr>    <chr>    
##  1 日付       接種回数 内１回目 内２回目 施設数(*)
##  2 2021/02/17 125      125      0        8        
##  3 2021/02/18 486      486      0        16       
##  4 2021/02/19 4,428    4,428    0        68       
##  5 2021/02/22 6,895    6,895    0        95       
##  6 2021/02/24 5,954    5,954    0        96       
##  7 2021/02/25 4,008    4,008    0        100      
##  8 2021/02/26 6,634    6,634    0        100      
##  9 2021/03/01 3,255    3,255    0        100      
## 10 2021/03/02 2,987    2,987    0        100      
## # … with 22 more rows
…
